<svg width="758" height="531" viewBox="0 0 758 531" version="1.1" xmlns="http://www.w3.org/2000/svg" xmlns:xlink="http://www.w3.org/1999/xlink">
<g id="Canvas" fill="none">
<g id="logo">
<g id="czerepublic">
<path d="M 247.291 426.738C 244.217 424.933 237.157 423.467 229.072 422.791C 223.492 422.339 221.67 421.663 219.279 419.069C 216.546 416.137 216.546 415.911 218.482 414.67C 219.621 413.994 220.532 412.866 220.532 412.189C 220.532 410.497 213.472 403.731 210.853 402.828C 209.6 402.49 206.298 400.122 203.451 397.64C 200.718 395.272 196.96 392.903 195.252 392.452C 193.43 392.114 192.292 391.325 192.633 390.761C 193.43 389.52 190.356 383.43 188.192 382.189C 187.395 381.738 186.257 379.821 185.573 377.904C 184.89 375.873 183.638 374.407 182.271 374.407C 181.132 374.295 179.197 374.182 178.172 374.069C 177.033 373.956 175.097 371.926 173.845 369.558C 170.315 362.678 166.215 359.069 161.547 358.956C 159.041 358.843 157.106 359.52 156.081 360.873C 154.714 362.791 154.487 362.791 150.729 359.971C 147.427 357.49 146.743 356.137 146.174 351.061C 145.491 345.874 144.808 344.52 139.797 339.896C 135.356 335.61 133.307 334.483 130.346 334.483C 125.45 334.483 121.806 332.001 120.895 327.828C 120.553 326.024 118.959 323.656 117.365 322.753C 115.884 321.738 114.632 320.272 114.632 319.483C 114.632 318.806 112.582 315.874 110.077 313.054C 107.572 310.347 105.181 307.077 104.839 305.836C 103.131 300.422 89.4664 292.415 86.5057 295.009C 86.0503 295.46 83.4312 295.573 80.8122 295.347C 76.599 294.896 75.9158 294.332 75.3464 291.4C 74.3216 287.227 68.7419 280.798 65.2119 279.896C 62.3651 279.22 60.9987 275.611 60.7709 267.377C 60.5432 263.656 60.0877 262.866 57.6964 262.302C 55.3051 261.738 54.6219 260.611 53.3693 254.633C 52.3445 250.347 51.2058 247.641 50.2948 247.641C 49.3839 247.641 48.4729 245.498 48.0174 242.002C 47.4481 237.603 46.7648 236.362 45.1706 236.362C 42.4377 236.362 37.5413 232.302 35.3777 228.355C 33.7836 225.084 33.7836 224.972 37.6552 222.716C 41.0713 220.686 41.6406 219.784 41.5268 216.4C 41.4129 214.257 41.8684 212.114 42.5516 211.776C 43.2348 211.325 45.1706 208.731 46.9926 205.911C 49.3839 202.302 50.8642 200.949 52.4584 201.175C 53.5971 201.4 55.7606 200.949 57.2409 200.16C 59.4045 199.032 60.2016 199.145 61.7958 200.385C 63.2761 201.626 63.8454 201.626 64.1871 200.611C 64.5287 199.821 65.4396 199.145 66.3506 199.145C 67.2616 199.145 67.9448 198.693 67.9448 198.129C 67.9448 196.776 78.0793 194.408 79.6735 195.423C 80.4706 195.874 84.0006 196.325 87.5306 196.438C 93.1103 196.663 94.3628 196.325 95.8431 194.295C 97.8928 191.475 97.2096 190.348 94.5906 192.378C 92.1993 194.408 82.748 194.746 80.129 192.942C 78.5348 191.814 77.2822 191.814 73.8661 193.054C 71.5887 193.844 68.9696 194.52 68.1725 194.633C 67.3754 194.633 65.8951 195.423 64.9842 196.325C 63.9593 197.34 62.1374 197.678 60.0877 197.34C 58.2658 196.889 56.4438 197.227 56.1022 197.904C 54.8497 199.934 51.0919 199.37 50.2948 197.002C 49.9532 195.874 48.1313 194.295 46.3093 193.505C 43.5764 192.378 43.121 191.701 43.5764 189.107C 44.2597 186.175 41.0713 181.776 38.7939 182.34C 37.4274 182.678 30.709 178.844 26.3819 175.235C 24.3323 173.43 21.8271 172.077 20.8023 172.077C 19.7774 172.077 18.9803 171.175 18.9803 170.047C 18.9803 167.791 16.2474 164.972 12.9452 163.844C 10.7816 163.054 10.3262 157.979 12.0342 155.272C 13.2868 153.355 11.2371 148.844 7.70713 145.686C 6.34068 144.445 5.31584 142.866 5.31584 141.964C 5.31584 141.175 4.29101 140.498 3.1523 140.498C -1.28867 140.498 -0.947053 137.34 3.60778 135.536C 4.29101 135.31 4.17713 134.295 3.26617 132.716C 1.10262 129.107 1.55811 127.866 5.0881 128.318C 7.59326 128.543 8.27648 129.22 8.50423 132.378C 8.84584 135.536 9.30132 135.987 12.262 135.987C 15.2226 135.987 15.4503 136.212 14.1978 138.13C 13.0591 140.047 13.2868 140.724 15.792 142.641C 17.9555 144.333 18.5249 145.686 18.0694 147.829C 17.3861 151.325 19.5497 154.032 23.0797 154.032C 25.9265 154.032 25.9265 153.806 26.2681 146.363C 26.2681 144.333 27.0652 142.19 27.9761 141.739C 28.8871 141.175 29.2287 139.934 28.8871 138.919C 28.4316 137.791 29.1148 136.1 30.3674 134.859C 31.62 133.618 32.6448 131.588 32.6448 130.348C 32.6448 129.107 33.4419 128.092 34.3529 128.092C 35.2639 128.092 36.8581 126.851 37.8829 125.273C 38.9077 123.694 40.7297 122.453 41.9823 122.453C 43.121 122.453 44.0319 121.776 43.8042 121.1C 43.0071 116.701 45.1706 115.009 53.7109 113.318C 61.3403 111.739 62.5929 111.739 64.7564 113.318C 67.0338 114.784 67.3754 114.784 68.4003 112.867C 71.2471 108.13 73.7522 106.551 77.1683 107.227C 79.218 107.679 80.4706 107.566 80.4706 106.776C 80.4706 104.746 82.1787 105.31 89.1248 110.047C 95.6154 114.445 98.3483 115.573 97.0957 113.543C 96.7541 112.979 98.2344 110.724 100.398 108.468C 103.472 105.197 104.383 103.28 104.383 100.009C 104.383 95.2726 103.245 95.7237 118.048 95.4982L 123.172 95.4982L 125.905 88.0546C 128.638 80.8365 129.777 79.5959 131.143 81.8516C 131.485 82.5283 133.079 82.9794 134.673 82.9794C 136.837 82.9794 137.406 82.4155 137.406 80.1599C 137.406 78.5809 137.861 77.3403 138.317 77.3403C 138.886 77.3403 140.367 76.3253 141.733 74.9719C 143.783 73.1674 144.352 73.0546 144.921 74.408C 145.263 75.3102 147.085 76.6636 148.907 77.4531C 152.209 78.6937 152.551 78.5809 156.309 74.7463C 158.586 72.4907 160.066 70.2351 159.725 69.5584C 159.383 68.9945 159.839 67.9794 160.863 67.19C 162.002 66.1749 162.344 64.7088 161.774 62.3403C 161.091 59.1825 161.205 59.0697 164.28 59.6336C 166.101 59.9719 168.834 59.5208 170.542 58.7313C 172.137 57.8291 175.211 57.1524 177.375 57.1524C 186.712 57.1524 197.188 55.9118 197.53 54.8968C 197.758 54.2201 199.01 53.6562 200.263 53.6562C 202.085 53.6562 202.426 53.0922 201.857 50.9494C 200.946 47.4532 202.085 44.6336 204.02 45.3103C 204.931 45.6487 206.526 44.8592 207.664 43.6186C 209.828 41.1374 213.13 40.4607 214.269 42.378C 215.18 43.8441 220.418 42.6035 223.72 40.0096C 225.087 38.9945 228.958 37.19 232.147 35.9494C 236.587 34.4833 238.296 33.1299 239.207 30.7615C 240.345 27.9419 240.801 27.7164 244.445 28.2803C 246.608 28.6186 250.48 28.1675 252.985 27.2652C 256.97 25.9119 257.54 25.2352 257.881 21.7389C 258.223 17.9044 257.995 17.6788 253.668 16.3254C 249.797 15.1976 249.227 14.6337 250.138 12.942C 251.505 10.4608 249.683 8.99461 245.925 9.55852C 243.078 9.89686 242.623 8.54348 244.331 5.38559C 244.9 4.37056 245.697 2.56605 246.039 1.43823C 246.608 -0.253492 247.064 -0.366274 248.999 0.648761C 250.252 1.32545 251.846 1.55101 252.416 1.21267C 253.099 0.761543 253.896 1.21267 254.237 2.11492C 255.148 4.48334 259.931 5.49837 262.55 3.80665C 264.258 2.79161 265.397 3.01718 268.813 4.93447C 271.204 6.28785 273.709 7.41566 274.62 7.41566C 277.809 7.41566 278.947 11.7014 276.898 16.6638C 275.304 20.7239 275.304 21.5134 276.67 22.9795C 278.036 24.2201 278.834 24.3329 280.883 23.2051C 282.25 22.5284 283.502 22.0773 283.73 22.3028C 284.527 22.9795 280.086 35.0472 279.061 35.0472C 277.012 35.0472 275.19 36.9645 275.19 39.1073C 275.19 42.2652 272.457 42.9419 269.041 40.6863C 265.511 38.4306 262.664 39.1073 262.664 42.2652C 262.664 44.8592 258.906 51.9644 255.718 55.4607C 254.579 56.7013 253.554 58.6186 253.554 59.6336C 253.554 60.7614 252.757 62.9043 251.732 64.4832C 250.252 66.6261 250.138 67.6411 251.163 68.6561C 251.846 69.3328 252.416 70.9118 252.416 72.0396C 252.416 73.2802 254.124 76.8892 256.287 80.1599C 258.451 83.3177 260.614 87.3779 260.956 88.9568C 261.411 90.6486 262.55 92.0019 263.461 92.0019C 264.6 92.0019 264.941 92.6786 264.486 93.8064C 264.144 94.8215 263.803 97.3027 263.803 99.4455C 263.803 101.927 263.233 103.28 262.208 103.28C 261.297 103.28 260.273 104.07 259.931 105.085C 259.589 105.987 258.337 106.664 257.312 106.551C 252.643 106.1 252.416 106.438 253.099 113.205L 253.896 119.859L 248.316 119.972C 244.558 119.972 242.395 120.648 241.484 121.889C 240.231 123.468 239.434 123.694 236.587 122.679C 234.424 121.889 233.057 121.889 233.057 122.566C 233.057 123.13 231.236 123.581 229.072 123.581C 226.908 123.581 225.087 124.145 225.087 124.709C 225.087 125.385 226.908 125.836 229.072 125.836C 231.236 125.836 233.057 125.385 233.057 124.821C 233.057 124.257 234.879 124.37 237.157 125.047C 240.801 126.175 241.484 126.062 242.85 124.145C 243.989 122.679 245.811 122.115 249.569 122.227C 254.124 122.227 254.807 121.889 255.376 119.521C 255.832 117.942 255.832 114.897 255.49 112.641C 254.807 108.919 254.921 108.694 257.54 109.37C 259.589 109.934 260.386 109.483 260.956 107.791C 261.297 106.551 262.55 105.536 263.689 105.536C 266.649 105.536 266.991 104.746 266.08 100.348C 265.283 97.0771 265.397 96.5132 266.877 96.9643C 267.788 97.3027 269.155 97.3027 269.838 96.8515C 270.521 96.5132 272.457 96.0621 274.279 96.0621C 276.556 95.9493 277.467 96.5132 277.467 97.9794C 277.467 100.573 280.086 101.476 283.958 100.235C 287.602 98.9944 288.968 96.2876 285.552 96.8515C 284.299 97.0771 282.819 97.5282 282.477 97.9794C 280.997 99.4455 279.972 98.7688 279.289 96.1749C 278.72 93.9192 278.036 93.5809 273.823 93.6937C 269.61 93.8064 268.357 93.2425 265.283 90.0846C 263.233 87.9418 261.525 85.5734 261.525 84.8967C 261.525 84.1072 259.931 81.5132 258.109 79.1448C 255.946 76.3253 254.693 73.2802 254.693 71.0245C 254.693 68.9945 254.01 67.19 253.327 66.8516C 252.188 66.5133 252.416 65.8366 253.782 64.1449C 254.921 62.9043 255.832 60.8742 255.832 59.5208C 255.832 57.8291 256.743 56.814 258.792 56.3629C 261.184 55.799 261.639 55.1223 261.184 52.8667C 260.842 50.9494 261.411 49.7088 262.778 48.8065C 264.03 48.0171 264.941 46.2126 264.941 44.4081C 264.941 40.799 265.625 40.5735 268.813 42.9419C 272.229 45.5359 274.506 44.972 276.101 41.3629C 276.898 39.5584 278.834 37.19 280.428 36.175C 283.047 34.4833 283.502 34.596 288.626 36.8517C 291.587 38.3178 296.142 39.5584 298.647 39.784C 303.202 40.2351 303.43 40.1224 305.252 35.6111L 307.074 30.987L 316.753 31.6637L 326.432 32.4532L 326.659 28.6186C 326.659 26.5886 326.659 23.769 326.545 22.4156C 326.432 21.0622 326.887 19.7089 327.57 19.2577C 329.278 18.2427 328.937 11.2502 327.229 9.78408C 326.318 9.10739 325.293 8.99461 324.724 9.44573C 324.268 9.89686 324.154 9.22017 324.382 7.97957C 324.724 6.17506 325.634 5.72394 329.734 5.61116C 333.833 5.61116 334.744 5.9495 335.655 8.20513C 336.908 11.7014 341.235 11.7014 342.146 8.31792C 342.829 5.72394 342.829 5.72394 343.512 8.54348C 344.082 10.7991 344.879 11.363 348.181 11.4758C 350.344 11.4758 352.622 11.5886 353.305 11.7014C 355.127 12.0397 356.152 16.551 354.785 18.2427C 353.988 19.2577 353.988 21.175 354.899 24.5585C 356.38 29.972 358.771 33.1299 362.643 34.596C 364.692 35.3855 365.148 36.4006 365.148 40.0096C 365.148 48.3554 367.767 50.2727 372.777 45.5359C 375.282 43.1675 375.396 43.1675 379.951 45.1975C 382.456 46.3253 384.506 47.9043 384.506 48.581C 384.506 49.3704 385.303 50.611 386.328 51.5133C 387.58 52.5283 387.922 53.9945 387.352 56.7013C 386.441 61.4381 388.605 61.6637 389.63 56.9268C 390.199 54.5584 389.858 52.8667 388.605 51.5133C 386.1 48.8065 386.328 48.0171 389.516 48.0171C 392.818 48.0171 402.725 52.3028 402.725 53.6562C 402.725 55.1223 411.379 55.1223 414.112 53.6562C 415.934 52.6411 416.617 52.9795 417.87 55.5734C 418.781 57.3779 419.92 60.4231 420.375 62.5659C 421.172 66.1749 421.4 66.2877 425.385 65.611C 427.663 65.2727 430.851 64.7088 432.445 64.2576C 435.178 63.6937 435.52 64.0321 436.659 68.205C 437.342 70.9118 437.342 73.0546 436.772 73.5057C 434.837 74.6335 435.748 77.4531 438.253 78.3553C 441.099 79.3704 445.996 77.002 445.996 74.6336C 445.996 73.9569 446.793 72.2651 447.704 70.9118C 449.184 68.7689 449.981 68.5433 452.487 69.5584C 454.195 70.1223 456.13 71.4757 456.814 72.3779C 458.636 74.9719 462.279 73.8441 463.988 70.3478C 465.354 67.4155 465.809 67.3027 470.82 67.8666C 476.172 68.5433 479.132 70.799 484.484 78.3553C 485.965 80.4982 486.078 81.1749 484.94 81.626C 483.346 82.0771 480.84 87.2651 481.068 89.2952C 481.41 91.438 476.969 94.5959 474.35 93.9192C 472.642 93.4681 471.731 93.9192 471.389 95.4982C 471.048 96.626 470.023 97.641 469.112 97.641C 467.29 97.641 461.255 102.716 459.547 105.761C 458.294 108.13 460.458 112.303 463.077 112.303C 463.988 112.303 465.468 113.769 466.265 115.686C 467.745 118.844 468.087 118.957 472.869 118.28C 477.652 117.716 477.88 117.829 477.88 120.31C 477.88 124.145 480.954 128.092 484.029 128.092C 485.737 128.092 487.331 129.333 488.925 132.378C 490.292 134.633 493.252 138.355 495.416 140.385C 498.832 143.656 499.515 145.122 499.515 149.069C 499.515 151.889 500.198 154.37 501.223 155.16C 504.298 157.641 502.248 157.641 497.352 155.272L 492.797 152.904L 491.43 155.385C 489.722 158.543 486.989 160.686 484.598 160.799C 483.573 160.799 481.865 161.814 480.727 163.054C 479.588 164.295 477.994 165.31 477.083 165.31C 476.172 165.31 475.602 165.987 475.83 166.776C 476.058 167.453 475.033 169.257 473.78 170.498C 471.048 173.205 460.344 175.122 459.091 173.205C 458.636 172.528 457.155 171.513 455.903 170.836C 454.536 170.272 452.487 169.257 451.462 168.468C 450.437 167.678 449.184 167.453 448.729 167.904C 447.704 168.919 452.942 173.092 455.447 173.205C 456.586 173.205 457.725 173.881 458.066 174.671C 458.408 175.686 461.141 176.137 467.176 176.137C 474.578 176.024 475.602 175.799 475.261 174.107C 474.919 173.092 475.375 171.964 476.172 171.626C 476.969 171.4 478.335 169.709 479.246 168.017C 480.727 164.859 481.182 164.633 488.47 161.475C 490.747 160.573 492.683 158.994 492.683 157.979C 492.683 157.077 493.138 156.287 493.822 156.287C 495.644 156.287 503.387 160.009 505.778 162.152C 507.145 163.28 510.219 164.859 512.61 165.761L 517.165 167.227L 523.086 161.137C 526.389 157.754 529.122 154.483 529.122 153.694C 529.122 152.904 530.146 151.438 531.399 150.31C 533.563 148.506 533.676 148.506 533.676 150.987C 533.676 152.453 532.424 156.175 530.83 159.22C 529.236 162.265 528.211 165.423 528.552 166.325C 528.894 167.115 528.666 168.468 528.097 169.145C 527.414 169.934 527.414 171.062 527.983 172.077C 529.349 174.333 530.26 173.092 530.716 168.581C 530.944 166.438 532.196 162.265 533.563 159.333C 534.815 156.287 535.954 152.904 535.954 151.663C 535.954 150.423 536.751 149.182 537.662 148.844C 538.573 148.393 539.37 147.491 539.37 146.588C 539.37 145.573 540.623 145.009 542.672 145.009C 544.608 145.009 546.43 144.445 546.772 143.769C 547.341 143.092 548.024 143.318 548.935 144.445C 549.732 145.46 550.985 145.912 552.124 145.573C 553.604 145.009 553.945 143.43 553.718 138.242C 553.376 131.024 552.124 128.656 548.138 127.641C 546.088 127.19 544.95 125.498 543.469 120.761C 542.445 117.265 540.509 113.882 539.256 113.092C 536.637 111.513 536.409 108.017 538.801 107.115C 539.712 106.664 541.761 107.227 543.356 108.242C 544.836 109.258 547.341 110.047 548.821 110.047C 550.302 110.047 552.465 110.836 553.718 111.739C 554.856 112.641 557.02 113.43 558.5 113.43C 559.981 113.43 562.258 114.445 563.625 115.686C 565.333 117.378 566.927 117.829 569.204 117.378C 571.823 116.701 572.393 117.039 572.393 118.844C 572.393 122.34 580.136 128.092 584.804 128.092C 588.448 128.092 588.562 128.205 587.993 131.476C 587.082 135.874 590.27 139.596 592.32 136.663C 594.825 133.393 597.444 134.408 597.444 138.806C 597.444 140.949 598.014 142.754 598.583 142.754C 599.266 142.754 599.722 142.303 599.722 141.626C 599.722 141.062 600.746 139.483 601.999 138.242C 604.049 136.212 605.415 135.987 612.589 136.438C 619.991 136.889 621.243 136.551 625.115 134.069C 627.392 132.491 629.328 130.348 629.328 129.445C 629.328 127.979 629.67 127.979 631.492 129.671C 633.313 131.25 633.427 132.152 632.402 134.859C 631.378 137.566 631.492 138.468 633.086 140.272C 635.705 143.205 635.591 146.137 632.744 146.137C 631.492 146.137 630.125 146.927 629.783 147.829C 629.442 148.731 627.278 149.746 625.001 150.197C 622.61 150.536 619.535 151.663 618.055 152.566L 615.436 154.257L 618.966 157.866C 620.902 159.897 622.496 162.039 622.496 162.829C 622.496 164.859 626.481 166.551 627.848 165.197C 629.442 163.618 635.021 170.836 636.046 175.799C 636.502 177.942 637.754 179.859 639.349 180.536C 640.715 181.099 642.081 182.453 642.423 183.355C 643.334 186.062 649.028 188.994 652.216 188.205C 653.696 187.866 655.746 186.513 656.771 185.272C 658.023 183.693 660.073 183.017 663.603 183.017C 666.336 182.904 668.955 182.34 669.411 181.663C 670.549 180.084 669.297 176.363 667.019 174.558C 665.425 173.318 665.425 173.205 667.475 173.43C 668.841 173.656 670.663 175.686 672.143 178.618C 674.762 184.145 679.659 187.302 682.847 185.611C 685.808 184.032 686.263 184.145 686.263 186.739C 686.263 188.543 687.06 188.994 689.679 188.994C 692.526 188.994 693.096 189.445 693.096 191.588C 693.096 193.054 694.12 195.197 695.487 196.438C 697.764 198.468 697.992 198.468 701.294 196.551C 705.963 193.844 709.493 194.182 713.137 197.453C 716.553 200.611 723.499 201.287 726.004 198.919C 727.143 197.678 727.257 198.017 726.688 200.611C 726.232 202.415 726.46 204.332 727.257 205.235C 728.282 206.475 728.282 207.49 727.257 209.295C 726.118 211.325 726.46 213.017 729.193 219.22C 730.901 223.28 732.267 227.566 732.039 228.581C 731.698 230.723 736.822 235.235 739.669 235.235C 740.694 235.235 742.174 236.25 742.971 237.49C 744.11 239.295 745.362 239.746 748.665 239.52C 752.878 239.182 752.878 239.182 753.675 244.257C 755.383 255.648 756.066 259.032 756.977 259.596C 759.255 260.949 757.66 263.43 752.878 266.137C 748.551 268.505 747.07 268.731 744.565 267.829C 742.857 267.152 739.555 266.926 737.278 267.265C 734.772 267.716 732.039 267.377 730.787 266.588C 727.598 264.671 722.702 268.054 722.702 272.34C 722.702 274.144 722.019 275.836 720.994 276.174C 720.083 276.626 718.033 278.994 716.439 281.475C 713.82 285.535 713.023 286.099 709.949 285.761C 707.102 285.535 706.191 284.746 705.508 282.152C 705.052 280.46 703.572 278.205 702.205 277.302C 700.839 276.4 699.245 274.37 698.675 272.791C 697.764 270.31 697.081 269.971 693.323 270.535C 690.135 270.874 688.313 270.423 685.58 268.392C 681.709 265.573 674.421 263.768 673.282 265.46C 672.94 266.024 671.346 266.25 669.752 265.911C 668.158 265.686 666.905 265.911 666.905 266.588C 666.905 267.152 670.094 267.603 674.307 267.603C 680.57 267.49 682.164 267.941 684.555 270.197C 686.149 271.663 687.402 272.453 687.402 272.002C 687.402 271.438 688.199 271.663 689.11 272.453C 690.477 273.58 691.16 273.58 692.526 272.453C 694.348 270.986 696.512 271.776 696.512 274.144C 696.512 275.047 697.992 276.851 699.928 278.317C 701.978 279.783 703.344 281.814 703.344 283.392C 703.344 284.746 704.369 286.438 705.621 287.114C 708.696 288.806 708.582 293.994 705.28 297.039C 702.547 299.633 688.769 305.159 685.125 305.159C 683.872 305.159 682.847 305.723 682.847 306.513C 682.847 307.189 681.936 308.768 680.911 309.896C 679.773 311.137 678.862 313.731 678.634 315.648C 678.179 321.287 677.04 326.926 676.015 329.407C 675.446 330.648 674.762 334.37 674.535 337.753C 674.079 342.941 673.396 344.407 670.435 347.114C 667.475 349.708 665.881 350.272 660.642 350.272C 653.355 350.272 651.647 352.077 650.394 360.648L 649.597 365.949L 643.448 366.738C 639.121 367.189 636.957 368.091 635.819 369.896C 632.516 374.746 628.189 378.467 626.026 378.467C 624.432 378.467 622.951 377.001 621.357 374.069C 619.763 370.798 618.169 369.445 615.663 368.881C 612.931 368.317 612.247 367.64 612.817 366.061C 613.728 363.242 606.895 359.971 602.113 360.986C 599.608 361.55 598.469 361.212 597.672 359.633C 596.875 358.392 595.167 357.603 593.003 357.603C 589.245 357.603 588.79 359.633 592.434 360.31C 593.573 360.422 595.508 361.437 596.533 362.34C 597.786 363.467 599.494 363.806 601.657 363.355C 605.984 362.34 610.539 364.144 610.539 366.625C 610.539 368.543 612.02 369.783 615.891 371.024C 616.916 371.362 618.624 373.167 619.649 375.084C 621.471 378.693 621.471 378.693 617.827 381.964C 613.5 385.798 609.401 386.137 605.415 382.979C 601.657 380.046 600.633 380.159 597.444 383.543C 594.483 386.7 591.978 387.152 591.067 384.67C 590.27 382.64 582.413 378.129 576.492 376.212C 572.279 374.858 571.823 374.971 569.66 377.565C 568.293 379.031 565.902 381.174 564.194 382.189C 562.486 383.204 560.892 385.46 560.436 387.49C 559.981 389.294 558.728 391.437 557.589 392.001C 555.084 393.355 549.618 402.377 549.618 405.309C 549.618 406.55 548.821 408.129 547.91 408.918C 546.999 409.708 546.202 411.512 546.202 412.866C 546.202 414.219 545.291 416.136 544.266 416.926C 543.242 417.828 542.672 417.941 543.128 417.264C 543.925 415.911 541.192 403.505 539.712 402.039C 539.028 401.362 536.296 401.475 532.538 402.152C 526.958 403.167 526.161 403.054 523.884 400.911C 522.176 399.332 520.354 398.655 518.418 398.994C 515.913 399.445 515.457 398.994 514.66 395.497C 513.749 391.888 513.18 391.437 509.764 391.099C 507.6 390.873 504.526 389.746 502.931 388.618C 500.768 387.039 498.718 386.813 494.049 387.152C 488.584 387.716 487.9 388.167 486.534 391.325C 484.826 395.272 479.588 400.573 478.677 399.106C 478.335 398.655 472.072 398.091 464.557 397.866C 453.17 397.528 450.209 397.076 444.857 394.708C 437.57 391.437 433.356 387.828 434.267 385.685C 434.609 384.783 434.267 384.107 433.47 384.107C 432.787 384.107 430.51 382.866 428.46 381.287C 426.41 379.708 424.133 378.467 423.563 378.467C 422.88 378.467 422.083 377.678 421.628 376.776C 420.717 374.407 412.062 374.407 411.151 376.776C 410.127 379.144 403.294 377.791 398.626 374.295C 396.69 372.941 393.729 371.701 392.135 371.701C 388.947 371.701 387.125 370.009 389.061 368.881C 389.744 368.43 389.972 367.753 389.63 367.189C 389.288 366.625 389.858 365.723 390.882 365.159C 393.274 363.806 391.907 359.295 389.061 359.295C 387.922 359.295 386.214 358.054 385.303 356.588C 383.709 354.219 383.709 353.655 385.075 352.528C 385.986 351.738 386.442 350.723 386.1 350.159C 385.758 349.595 386.1 349.144 386.669 349.144C 387.352 349.144 387.922 348.016 387.922 346.663C 387.922 344.407 387.808 344.295 385.644 346.325C 384.392 347.452 383.367 349.37 383.367 350.498C 383.367 351.625 382.57 352.866 381.659 353.204C 380.748 353.655 379.951 354.896 379.951 356.024C 379.951 357.377 380.52 357.828 381.659 357.49C 382.684 357.039 383.367 357.49 383.367 358.392C 383.367 359.407 384.961 360.535 386.897 361.099L 390.427 362.114L 387.922 365.272C 385.189 368.655 383.367 369.219 383.367 366.625C 383.367 364.821 379.951 362.678 376.99 362.678C 375.852 362.678 373.119 361.437 370.955 359.971C 368.564 358.505 364.464 357.039 361.39 356.701C 356.38 356.249 355.696 356.475 354.558 358.956C 353.874 360.422 352.736 361.437 351.939 361.099C 351.142 360.761 349.661 361.325 348.409 362.114C 346.131 363.919 344.195 364.257 345.106 362.791C 345.448 362.227 344.993 360.31 344.082 358.392C 342.715 355.686 341.349 354.783 337.819 354.219C 335.314 353.768 333.264 352.979 333.264 352.415C 333.264 351.738 331.1 351.4 328.481 351.625C 324.04 351.964 323.585 352.302 322.788 355.911C 322.218 358.054 322.104 363.016 322.56 366.851C 322.902 370.685 322.788 374.52 322.218 375.31C 321.763 376.099 321.194 377.791 321.08 379.031C 320.966 380.272 320.51 383.43 320.169 385.911C 319.599 388.956 319.827 390.873 320.624 391.325C 322.446 392.452 322.104 394.257 320.055 394.257C 319.03 394.257 316.525 393.467 314.475 392.452C 312.425 391.55 309.009 390.873 306.846 391.099C 303.43 391.437 303.088 391.776 302.746 395.61C 302.405 398.994 301.38 400.685 297.736 403.843C 293.181 407.678 292.954 408.129 292.384 415.911C 291.701 424.257 289.993 426.625 287.715 422.565C 287.032 421.212 285.894 420.197 285.21 420.197C 284.527 420.197 283.388 419.407 282.591 418.279C 281.339 416.588 280.997 416.588 278.72 418.167C 275.531 420.422 270.293 419.182 267.446 415.685C 265.169 412.979 261.297 413.655 261.639 416.7C 262.208 420.084 260.273 423.58 257.995 423.58C 256.743 423.58 254.693 424.595 253.327 425.836C 250.48 428.43 250.366 428.43 247.291 426.738ZM 400.448 361.889C 400.448 361.099 399.992 360.422 399.309 360.422C 398.74 360.422 398.17 361.212 398.17 362.114C 398.17 363.016 397.715 363.806 397.031 363.806C 396.462 363.806 395.893 363.355 395.893 362.678C 395.893 362.114 395.437 361.55 394.754 361.55C 393.046 361.55 393.388 363.467 395.551 365.498C 397.373 367.302 397.487 367.302 398.967 365.385C 399.764 364.257 400.448 362.678 400.448 361.889ZM 410.013 362.114C 411.038 360.535 412.632 359.295 413.429 359.295C 414.34 359.295 415.82 358.054 416.845 356.475C 418.098 354.558 419.806 353.655 422.083 353.655C 424.36 353.655 425.499 353.092 425.499 351.964C 425.499 351.061 426.524 350.272 427.777 350.272C 428.915 350.272 430.51 349.37 431.079 348.355C 432.104 346.437 432.331 346.55 434.039 348.919C 436.089 351.738 440.075 352.189 440.986 349.708C 441.555 348.468 442.238 348.355 443.946 349.257C 446.451 350.61 452.828 349.595 452.828 347.904C 452.828 347.227 453.398 347.114 454.195 347.565C 455.106 348.129 455.219 347.791 454.764 346.55C 454.195 344.971 454.764 344.633 458.066 344.633C 461.141 344.633 462.279 344.069 462.735 342.377C 463.077 341.249 464.557 339.445 466.037 338.43C 469.339 336.287 469.567 333.468 466.493 329.859L 464.101 327.265L 466.72 325.234C 468.428 323.994 468.77 323.204 467.745 323.204C 466.834 323.204 465.24 323.994 464.215 324.896C 461.938 326.926 462.507 332.227 464.899 332.227C 465.809 332.227 466.493 333.242 466.493 334.483C 466.493 335.723 465.696 336.738 464.785 336.738C 463.76 336.738 462.393 337.979 461.71 339.558C 460.913 341.362 459.547 342.377 457.839 342.377C 454.195 342.377 451.689 343.505 451.689 345.197C 451.689 347.001 445.996 348.129 443.719 346.889C 442.58 346.212 441.213 346.55 439.961 347.791C 437.911 349.595 437.683 349.483 435.748 347.114C 433.356 344.182 431.99 343.956 430.054 346.325C 429.257 347.227 427.663 348.016 426.41 348.016C 425.158 348.016 423.905 348.919 423.563 350.159C 423.222 351.513 422.311 352.077 420.944 351.738C 419.578 351.4 417.756 352.302 416.048 354.107C 414.568 355.686 412.518 357.039 411.493 357.039C 410.468 357.039 409.33 358.054 408.988 359.295C 408.191 361.776 406.71 362.227 405.572 360.422C 405.23 359.858 404.091 359.295 403.18 359.295C 402.27 359.295 401.586 359.858 401.586 360.422C 401.586 361.099 402.383 361.55 403.294 361.55C 404.319 361.55 405.344 362.34 405.686 363.242C 406.71 365.61 407.849 365.385 410.013 362.114ZM 162.913 351.964C 163.824 349.821 165.304 348.016 166.215 348.016C 168.265 348.016 169.29 341.926 168.037 337.415C 166.899 333.693 167.696 331.776 169.859 332.678C 170.77 333.016 172.25 332.001 173.161 330.422C 174.186 328.956 174.528 327.716 173.845 327.716C 173.161 327.716 172.364 328.392 172.023 329.295C 171.681 330.197 170.315 330.535 168.607 330.197C 166.557 329.859 165.874 330.197 165.76 331.776C 165.418 337.189 165.532 339.783 166.215 342.716C 166.899 344.971 166.671 345.761 165.304 345.761C 163.596 345.761 160.18 351.287 160.18 354.219C 160.18 356.926 161.205 356.249 162.913 351.964ZM 590.84 353.43C 590.156 352.753 588.221 352.077 586.513 351.851C 584.918 351.625 582.641 350.723 581.616 349.821C 580.477 348.806 579.111 348.016 578.428 348.016C 577.744 348.016 577.403 347.001 577.744 345.761C 578.086 344.52 577.517 342.264 576.492 340.686C 574.67 337.979 574.442 337.979 571.823 339.671C 569.887 340.911 567.724 341.249 565.446 340.798C 562.941 340.347 562.144 340.573 562.486 341.588C 562.941 342.941 567.382 343.505 569.546 342.377C 572.962 340.798 574.67 341.362 574.784 344.407C 574.898 346.099 574.898 348.129 574.784 348.919C 574.67 349.708 575.809 350.272 577.517 350.272C 579.339 350.272 580.363 350.949 580.363 351.964C 580.363 353.092 581.502 353.655 584.121 353.655C 586.057 353.655 588.562 354.107 589.473 354.783C 591.523 356.024 592.548 355.122 590.84 353.43ZM 392.818 339.558C 392.704 337.753 392.021 336.062 391.338 335.836C 390.769 335.61 390.199 334.708 390.199 333.919C 390.199 331.776 387.239 330.986 383.822 332.227C 379.268 334.031 372.435 332.791 368.108 329.52C 364.692 327.039 364.237 326.137 365.034 323.994C 366.628 319.934 364.578 317.565 359.568 317.565C 357.177 317.565 353.305 316.776 350.914 315.874C 347.725 314.407 346.359 314.407 345.106 315.422C 343.854 316.438 342.943 316.099 340.779 313.844C 339.299 312.265 337.819 310.347 337.591 309.671C 337.363 308.881 336.338 309.332 335.086 310.686C 333.036 312.941 333.036 313.054 335.997 314.182C 337.705 314.746 339.299 316.099 339.641 317.001C 340.438 318.919 345.334 319.37 346.017 317.565C 346.473 316.212 353.761 318.242 353.761 319.708C 353.761 320.047 355.924 320.272 358.429 320.047L 363.212 319.595L 362.643 323.317C 362.073 326.701 362.529 327.603 366.628 331.099C 370.386 334.257 372.322 335.046 376.762 335.272C 379.723 335.498 383.253 335.159 384.733 334.595C 386.783 333.806 387.58 334.257 388.719 336.513C 390.655 340.122 390.541 341.249 388.377 341.249C 387.466 341.249 387.011 341.813 387.352 342.49C 387.808 343.054 389.288 343.505 390.541 343.28C 392.591 343.054 393.046 342.265 392.818 339.558ZM 567.838 336.062C 567.838 335.046 568.863 334.031 570.001 333.693C 572.279 333.129 573.531 330.31 573.531 325.573C 573.531 323.881 572.962 323.204 572.051 323.543C 570.571 324.107 568.749 320.836 567.382 315.31C 566.471 311.25 572.62 305.836 578.086 306.062C 581.502 306.174 582.755 305.498 586.854 300.986C 590.612 296.926 591.409 295.347 590.612 293.768C 589.132 291.062 589.132 290.159 591.295 287.565C 593.003 285.535 593.003 285.535 592.32 288.017C 591.751 289.934 591.978 290.498 593.117 290.385C 593.914 290.159 595.736 290.611 597.216 291.4C 598.583 292.189 599.722 292.528 599.722 292.077C 599.722 291.626 600.746 292.189 602.113 293.43C 604.39 295.46 604.504 295.46 608.49 291.174C 612.133 287.453 613.044 287.001 616.347 287.678C 618.738 288.017 620.218 287.904 620.218 287.227C 620.218 285.761 616.574 284.971 610.881 285.197C 607.009 285.31 606.554 285.648 606.554 288.355C 606.554 290.047 606.098 291.738 605.529 292.077C 603.821 293.204 595.508 288.468 594.825 285.986C 594.028 282.941 591.067 283.054 589.245 286.325C 587.537 289.37 587.424 291.738 588.676 293.543C 589.359 294.445 588.448 296.137 586.171 298.505C 584.235 300.423 582.641 302.453 582.641 303.016C 582.641 303.58 580.136 304.031 576.947 304.031C 572.848 304.031 571.026 304.595 570.229 305.949C 569.318 307.528 568.976 307.189 568.407 303.693C 567.724 299.971 566.699 298.956 561.461 295.911C 555.312 292.528 554.287 291.287 556.451 289.934C 557.134 289.595 557.589 288.242 557.589 287.001C 557.589 285.874 557.134 284.859 556.451 284.859C 555.881 284.859 555.312 285.423 555.312 285.986C 555.312 286.663 554.629 287.114 553.945 287.114C 553.148 287.114 550.757 283.28 548.594 278.768C 545.633 272.565 544.039 270.31 542.103 269.859C 537.434 268.956 536.409 270.535 538.004 276.4C 539.256 280.911 539.142 282.039 537.434 284.971C 535.157 288.806 535.043 288.806 531.741 286.099C 529.008 283.844 528.325 281.475 530.26 281.475C 530.944 281.475 531.399 280.798 531.399 280.009C 531.399 277.979 528.666 272.453 527.755 272.453C 526.389 272.453 526.73 276.4 528.097 277.753C 529.008 278.656 529.008 279.22 528.097 279.671C 525.933 281.024 526.73 284.069 529.919 287.34C 534.132 291.738 536.637 291.4 539.484 285.761C 541.647 281.588 541.761 280.686 540.395 276.738C 537.548 267.941 542.217 270.084 546.544 279.558C 548.252 283.392 550.188 287.34 550.757 288.242C 551.44 289.144 552.351 290.949 552.921 292.302C 553.49 293.656 556.337 295.798 559.184 297.039C 565.219 299.971 567.268 302.904 566.13 307.866C 565.105 312.716 565.333 320.047 566.585 321.287C 567.154 321.851 567.382 323.092 567.041 323.994C 566.585 325.009 567.268 325.798 568.863 326.249C 571.937 327.039 571.937 329.971 568.976 330.761C 567.724 331.099 566.699 331.663 566.699 332.114C 566.699 332.452 566.357 333.919 566.016 335.385C 565.56 336.851 565.788 337.866 566.585 337.866C 567.268 337.866 567.838 337.077 567.838 336.062ZM 178.4 326.024C 178.4 325.234 179.197 323.994 180.221 323.43C 181.702 322.64 181.816 321.964 180.791 319.934C 179.197 317.001 176.805 316.776 177.83 319.708C 178.172 320.949 177.944 322.189 177.261 322.64C 175.78 323.543 175.78 327.716 177.261 327.716C 177.944 327.716 178.4 326.926 178.4 326.024ZM 467.631 319.483C 465.354 317.678 466.151 312.941 468.884 312.265C 470.934 311.701 471.048 311.475 469.339 308.994C 468.428 307.528 468.087 306.287 468.656 306.287C 469.226 306.287 470.023 305.047 470.364 303.468C 470.934 301.438 472.756 299.859 476.513 298.054L 481.865 295.573L 481.296 289.37C 480.385 278.204 481.182 271.889 483.915 267.829C 486.078 264.671 485.509 261.513 482.89 260.949C 481.524 260.723 481.751 259.934 483.801 257.227C 486.192 254.069 486.989 253.844 493.252 253.844C 499.287 253.844 500.085 253.618 500.085 251.588C 500.085 249.558 500.996 249.332 507.828 248.994C 513.977 248.768 516.596 249.22 520.581 251.137C 523.314 252.49 525.364 254.069 525.022 254.52C 524.795 255.084 523.77 255.197 522.973 254.859C 520.695 253.956 519.67 256.212 520.581 260.047C 521.151 262.641 521.948 263.43 524.111 263.43C 525.592 263.43 526.844 262.979 526.844 262.302C 526.844 261.738 525.819 261.174 524.567 261.174C 522.973 261.174 522.289 260.385 522.289 258.806C 522.289 257.34 522.973 256.55 524.339 256.776C 527.869 257.114 529.235 256.663 528.552 255.535C 528.097 254.859 528.325 253.731 528.894 252.941C 531.057 250.122 531.171 246.626 529.008 244.708C 527.072 242.904 526.958 243.017 527.641 246.964C 528.438 251.701 527.527 252.039 521.378 248.881C 517.279 246.851 512.838 246.175 503.956 246.4C 500.54 246.513 499.629 246.964 499.06 249.22C 498.49 251.701 497.921 251.926 491.886 251.588C 488.242 251.362 484.712 251.701 483.801 252.378C 482.776 253.28 481.637 252.941 479.246 250.799C 477.538 249.22 474.464 247.528 472.528 247.077C 470.478 246.626 468.77 245.611 468.77 244.708C 468.77 243.919 467.404 242.34 465.696 241.212C 463.874 240.084 462.166 238.731 461.71 238.167C 461.255 237.49 460.571 237.265 460.23 237.716C 459.205 238.731 470.137 249.22 472.414 249.332C 473.553 249.445 475.83 250.799 477.424 252.265C 479.588 254.295 480.157 255.648 479.702 258.017C 479.246 260.272 479.702 261.513 481.41 262.753C 483.346 264.107 483.573 264.783 482.435 266.701C 481.751 268.054 480.727 268.844 480.043 268.505C 477.88 267.152 476.513 269.295 478.449 271.325C 479.929 272.904 480.043 273.806 479.018 276.062C 478.108 277.866 477.994 281.137 478.791 286.438L 479.816 294.107L 474.805 296.475C 472.186 297.716 469.909 299.52 469.909 300.422C 469.909 301.325 468.77 302.904 467.404 304.031C 465.24 305.723 465.012 306.513 466.037 308.204C 467.062 309.896 466.948 310.798 465.809 312.49C 463.646 315.422 463.874 319.483 466.151 320.836C 468.77 322.189 469.909 321.174 467.631 319.483ZM 180.221 315.535C 180.905 315.084 181.816 313.618 182.271 312.265C 183.296 309.107 180.221 308.543 179.083 311.701C 178.741 312.716 178.058 314.295 177.716 315.084C 177.033 316.55 178.286 316.889 180.221 315.535ZM 183.068 306.964C 183.182 306.287 183.182 304.934 183.068 303.919C 182.954 302.904 183.979 301.663 185.459 300.986C 186.94 300.423 187.395 299.633 186.712 299.182C 185.004 298.167 179.538 302.678 180.221 304.483C 180.563 305.272 179.994 306.287 178.969 306.738C 177.944 307.077 177.375 307.866 177.716 308.43C 178.627 309.783 182.954 308.656 183.068 306.964ZM 326.432 307.979C 328.14 306.4 328.481 306.4 329.848 307.979C 331.442 309.896 335.541 310.347 335.541 308.543C 335.541 307.979 334.972 307.415 334.175 307.415C 333.492 307.415 331.897 306.625 330.759 305.498C 328.823 303.806 328.595 303.806 326.659 305.498C 325.521 306.625 324.268 307.415 323.926 307.415C 323.699 307.415 321.763 305.385 319.713 302.904C 316.639 299.069 316.297 298.167 317.55 296.137C 318.802 294.22 318.688 293.656 316.525 292.189C 314.02 290.498 313.792 288.919 315.5 286.212C 315.955 285.423 316.069 284.407 315.728 284.069C 315.386 283.731 315.955 281.588 316.866 279.332C 318.005 276.626 318.119 275.159 317.322 274.934C 316.411 274.595 316.411 274.032 317.322 273.017C 318.233 271.889 318.233 270.874 317.436 269.182C 315.842 266.25 315.842 265.686 317.891 265.686C 321.194 265.686 319.827 261.174 316.183 259.934C 314.247 259.144 312.767 257.904 312.767 256.776C 312.767 254.295 310.604 252.152 308.782 252.829C 308.098 253.167 306.732 252.603 305.935 251.588C 305.138 250.686 303.544 249.896 302.519 249.896C 301.38 249.896 300.241 249.22 299.9 248.543C 299.216 246.513 293.409 251.926 293.409 254.633C 293.409 257.453 294.889 257.227 296.256 254.182C 297.736 250.911 301.835 251.137 305.821 254.746C 307.643 256.438 308.668 256.776 309.009 255.874C 309.351 255.084 310.034 254.408 310.604 254.408C 311.287 254.408 311.401 254.859 311.059 255.535C 310.148 257.114 313.792 262.302 316.069 262.415C 317.55 262.528 317.436 262.641 315.842 263.092C 314.134 263.543 313.792 264.332 314.361 266.588C 315.728 271.776 315.955 276.4 315.044 277.528C 314.589 278.205 313.906 280.46 313.564 282.603C 313.336 284.746 312.767 287.678 312.425 289.144C 311.97 290.836 312.425 292.077 313.906 292.979C 315.5 293.994 315.728 294.671 314.703 296.137C 313.792 297.716 314.247 299.069 316.753 302.453C 319.941 306.738 322.902 309.671 324.04 309.671C 324.268 309.671 325.407 308.881 326.432 307.979ZM 188.534 290.047C 186.94 285.648 184.435 284.295 185.801 288.58C 186.257 289.934 186.598 292.528 186.484 294.332C 186.484 297.377 186.598 297.49 188.192 295.911C 189.787 294.332 189.787 293.543 188.534 290.047ZM 623.862 282.716C 623.407 278.43 628.303 275.047 629.783 278.656C 630.467 280.573 638.438 281.024 638.438 279.22C 638.438 278.656 637.071 278.092 635.363 278.092C 633.769 278.092 631.492 277.302 630.353 276.287C 628.645 274.708 627.848 274.708 624.204 275.949C 620.788 277.189 620.218 277.866 620.788 279.783C 621.243 281.024 621.585 282.941 621.471 284.069C 621.471 285.197 622.154 285.874 622.837 285.648C 623.634 285.423 624.09 284.069 623.862 282.716ZM 187.509 283.28C 187.509 282.377 188.192 281.475 188.989 281.137C 190.014 280.798 190.014 280.347 189.103 279.107C 187.054 276.626 186.029 267.941 187.737 267.829C 194 267.039 198.555 267.265 199.807 268.167C 202.882 270.761 214.838 266.701 214.838 263.205C 214.838 262.528 215.977 261.174 217.457 259.934C 219.279 258.468 219.507 257.904 218.254 257.904C 215.749 257.904 212.561 260.611 212.561 262.753C 212.561 263.768 211.878 264.671 211.194 264.783C 210.397 264.783 209.258 265.009 208.575 265.009C 208.006 265.122 206.753 265.573 205.956 266.137C 205.159 266.588 202.996 266.475 201.174 265.686C 199.352 264.896 197.074 264.558 196.049 264.896C 195.139 265.347 194.114 265.122 193.772 264.558C 193.317 263.768 192.292 263.881 190.925 264.558C 187.851 266.137 187.509 266.024 187.509 262.979C 187.509 261.513 187.054 260.047 186.484 259.821C 185.118 259.37 184.662 253.28 185.801 250.686C 186.712 248.656 185.801 246.738 184.549 247.979C 183.182 249.22 182.613 262.302 183.865 262.302C 184.549 262.302 185.118 264.332 185.004 267.152C 184.89 275.611 185.687 284.859 186.598 284.859C 187.054 284.859 187.509 284.182 187.509 283.28ZM 640.487 273.919C 640.715 272.678 642.082 270.986 643.676 270.197C 645.156 269.408 646.409 268.28 646.409 267.716C 646.409 267.152 647.889 266.926 649.711 267.377C 652.33 267.941 653.013 267.603 653.582 265.799C 654.493 262.19 659.618 262.641 660.529 266.25C 660.984 268.054 662.009 269.069 663.603 269.069C 665.767 269.069 665.767 268.844 662.806 265.122C 660.87 262.641 658.821 261.174 657.112 261.174C 655.632 261.174 654.038 260.385 653.469 259.37C 652.785 258.129 651.533 257.678 649.825 258.129C 647.889 258.58 647.547 258.355 648.003 257.002C 648.914 254.746 644.473 248.092 641.057 246.626C 639.576 245.949 638.438 244.483 638.438 243.242C 638.438 240.423 635.363 238.054 631.719 238.054C 628.986 238.054 628.759 237.716 628.872 232.866C 629.1 228.242 628.759 227.678 625.684 226.325C 623.179 225.197 621.585 225.084 619.649 225.987C 617.713 226.889 616.461 226.776 614.866 225.648C 612.247 223.618 609.173 223.505 608.49 225.423C 608.148 226.438 607.693 226.438 606.212 225.197C 605.073 224.408 604.276 224.182 604.276 224.859C 604.276 227.114 607.806 228.919 609.742 227.678C 611.222 226.776 612.475 226.889 614.866 228.129C 617.372 229.37 618.51 229.483 619.763 228.355C 622.382 226.212 627.164 229.144 626.367 232.528C 625.456 236.024 628.872 240.874 632.289 240.874C 633.883 240.874 635.363 241.663 635.819 242.904C 636.16 243.919 638.665 246.851 641.284 249.445C 645.27 253.28 645.953 254.633 645.611 257.453C 644.928 261.626 647.206 263.543 649.369 260.723C 651.191 258.129 652.558 260.385 651.533 264.332C 651.077 266.024 650.394 266.701 650.166 266.024C 649.483 264.107 644.131 264.107 644.131 266.024C 644.131 266.926 642.879 268.167 641.284 268.844C 639.69 269.52 638.438 270.874 638.438 271.776C 638.438 272.678 638.096 274.257 637.641 275.385C 637.185 276.738 637.413 277.077 638.552 276.738C 639.462 276.513 640.26 275.159 640.487 273.919ZM 529.577 266.814C 532.196 262.866 532.31 262.302 530.602 262.302C 528.666 262.302 525.706 266.814 525.706 269.859C 525.706 272.114 526.275 271.663 529.577 266.814ZM 291.815 263.205C 294.32 262.302 295.686 261.062 295.686 259.821C 295.686 257.34 293.865 257.114 292.954 259.483C 292.612 260.385 291.587 261.174 290.79 261.174C 289.879 261.174 288.513 261.964 287.715 262.866C 285.894 265.009 279.745 265.122 279.745 262.979C 279.745 261.851 278.378 261.4 275.531 261.4C 270.635 261.513 264.258 260.723 260.956 259.708C 259.589 259.257 257.654 259.821 255.946 261.062C 253.44 262.979 252.985 262.979 249.683 261.287C 247.747 260.272 245.583 258.693 244.672 257.791C 243.42 256.325 243.306 256.325 243.534 258.242C 243.761 259.37 244.9 260.949 246.153 261.626C 247.405 262.302 248.658 263.205 248.999 263.543C 250.594 265.235 253.782 265.347 257.084 263.768C 260.045 262.302 261.184 262.189 263.006 263.317C 264.372 264.22 265.625 264.332 266.308 263.656C 267.56 262.415 277.467 264.445 277.467 265.911C 277.467 266.362 278.606 266.814 280.086 266.814C 281.453 266.814 283.388 267.377 284.299 267.941C 285.552 268.731 286.235 268.393 287.032 266.814C 287.602 265.573 289.765 263.994 291.815 263.205ZM 221.329 260.385C 220.987 259.257 220.759 259.934 220.759 261.738C 220.759 263.656 220.987 264.445 221.329 263.768C 221.557 262.979 221.557 261.4 221.329 260.385ZM 233.627 263.43C 234.082 262.753 232.26 262.302 229.186 262.302C 226.339 262.302 223.948 262.866 223.948 263.43C 223.948 264.107 225.997 264.558 228.389 264.558C 230.894 264.558 233.285 264.107 233.627 263.43ZM 239.776 257.904C 238.182 257.453 236.929 258.806 236.018 262.302C 235.221 265.009 235.335 265.009 238.068 261.738C 239.776 259.821 240.459 258.129 239.776 257.904ZM 319.599 256.663C 319.599 256.099 319.144 255.535 318.461 255.535C 317.891 255.535 317.322 256.099 317.322 256.663C 317.322 257.34 317.891 257.791 318.461 257.791C 319.144 257.791 319.599 257.34 319.599 256.663ZM 323.813 253.956C 323.243 252.603 324.268 252.49 329.278 252.941C 333.15 253.393 336.111 253.054 337.022 252.378C 338.16 251.362 339.185 251.588 341.121 252.829C 343.512 254.52 343.854 254.52 345.334 252.265C 346.359 250.911 348.295 249.896 349.889 249.896C 351.369 249.896 352.622 249.445 352.622 248.768C 352.622 247.19 344.651 248.092 343.512 249.784C 342.829 250.911 342.146 250.911 340.324 250.009C 338.616 249.107 337.705 249.107 337.135 250.009C 336.68 250.799 333.947 251.024 329.278 250.46C 321.877 249.784 319.941 250.573 321.194 253.844C 321.535 254.746 322.332 255.535 323.129 255.535C 323.813 255.535 324.154 254.859 323.813 253.956ZM 182.954 248.317C 182.954 247.979 181.93 245.949 180.563 243.806C 178.513 240.31 178.399 239.746 179.994 239.746C 181.019 239.746 181.816 238.956 181.816 238.054C 181.816 237.152 180.791 236.362 179.538 236.362C 178.286 236.362 177.261 235.911 177.261 235.347C 177.261 233.317 182.157 230.723 184.89 231.4C 186.37 231.851 187.509 231.626 187.509 230.836C 187.509 230.272 188.534 228.693 189.9 227.453C 191.95 225.648 192.064 224.746 191.153 221.363C 190.47 219.22 190.47 216.964 190.925 216.4C 191.495 215.949 191.495 213.693 191.039 211.551C 190.356 208.505 189.9 208.054 189.217 209.633C 188.762 210.648 188.762 212.34 189.103 213.355C 189.445 214.37 189.445 215.723 188.989 216.4C 188.534 217.077 188.079 219.445 187.965 221.701C 187.737 227.678 186.484 229.708 183.638 228.919C 180.563 228.242 174.983 232.302 174.983 235.347C 174.983 238.731 179.766 248.768 181.474 248.768C 182.271 248.768 182.954 248.543 182.954 248.317ZM 354.899 245.159C 354.785 243.129 351.939 239.633 351.142 240.423C 350.344 241.325 352.736 246.513 353.988 246.513C 354.444 246.513 354.899 245.836 354.899 245.159ZM 532.538 240.31C 534.929 237.49 532.652 236.814 530.033 239.52C 527.983 241.55 527.869 242.002 529.349 242.002C 530.26 242.002 531.741 241.212 532.538 240.31ZM 349.206 239.746C 349.206 239.182 348.75 238.618 348.067 238.618C 346.245 238.618 346.701 233.43 348.636 231.851C 350.572 230.272 350.914 227.34 349.206 227.34C 348.636 227.34 348.067 228.129 348.067 229.032C 348.067 230.047 347.27 231.062 346.359 231.4C 345.22 231.851 344.651 233.656 344.651 236.475C 344.651 240.084 344.993 240.874 346.928 240.874C 348.181 240.874 349.206 240.423 349.206 239.746ZM 457.383 239.069C 457.383 237.716 453.853 235.122 452.487 235.573C 451.803 235.799 449.981 235.009 448.615 233.769C 445.654 231.062 443.719 231.964 446.451 234.671C 447.476 235.686 448.273 237.039 448.273 237.716C 448.273 238.393 449.298 238.618 450.551 238.28C 451.803 237.941 453.17 238.167 453.511 238.731C 454.195 239.859 457.383 240.197 457.383 239.069ZM 430.054 237.603C 430.054 237.039 428.232 235.46 426.069 234.107C 422.994 232.302 422.197 231.062 422.652 229.483C 423.222 227.791 422.425 227.002 418.781 225.423C 416.162 224.295 414.112 222.829 414.112 222.039C 414.112 221.25 413.657 220.573 412.973 220.573C 411.038 220.573 411.721 225.084 413.884 225.761C 418.439 227.227 420.944 228.919 420.489 230.272C 419.92 231.626 423.222 235.122 427.207 237.265C 430.054 238.844 430.054 238.844 430.054 237.603ZM 435.406 233.543C 437.114 230.047 437.456 229.821 439.164 231.287C 440.302 232.302 441.441 232.528 442.58 231.851C 444.06 230.949 444.06 230.723 442.466 230.723C 441.441 230.723 439.961 229.934 439.164 229.032C 437.342 226.889 435.406 228.242 432.901 233.317C 430.851 237.378 430.851 237.49 432.331 237.49C 433.015 237.49 434.381 235.686 435.406 233.543ZM 533.676 230.836C 533.676 230.272 532.993 229.596 532.082 229.257C 531.285 228.919 530.146 227.227 529.805 225.423C 529.349 223.731 527.869 221.137 526.616 219.784C 525.364 218.43 524.681 216.851 525.022 216.287C 525.364 215.723 524.681 214.37 523.428 213.242C 522.176 212.114 521.151 211.776 521.151 212.453C 521.151 213.129 521.72 214.032 522.289 214.37C 522.973 214.708 523.428 216.175 523.428 217.415C 523.428 218.769 524.225 220.799 525.364 221.926C 526.389 223.054 527.186 225.423 527.072 227.227C 526.958 230.498 527.186 230.723 532.879 231.738C 533.335 231.738 533.676 231.4 533.676 230.836ZM 357.86 224.746C 358.202 223.844 359.682 223.393 361.618 223.731C 364.009 224.069 365.717 223.393 367.539 221.588C 369.019 220.122 371.183 219.107 372.208 219.22C 374.713 219.671 376.079 216.626 374.371 214.483C 372.891 212.791 373.802 211.551 376.535 211.551C 377.673 211.551 379.154 210.874 379.837 209.972C 381.09 208.505 381.773 208.618 385.189 210.648C 387.466 212.002 389.744 213.806 390.427 214.821C 391.224 216.175 392.818 216.513 396.121 216.287C 399.764 215.836 401.359 216.4 405.002 219.332C 407.394 221.25 409.671 222.378 410.127 221.814C 410.468 221.25 408.874 219.22 406.597 217.415C 403.408 214.821 401.245 214.032 397.601 214.032C 394.185 214.032 391.907 213.242 390.313 211.663C 389.061 210.423 386.442 208.618 384.392 207.49C 381.09 205.799 380.634 205.799 379.723 207.49C 379.154 208.505 377.56 209.295 376.079 209.295C 372.094 209.295 370.044 212.227 371.866 215.16C 373.232 217.302 373.119 217.415 370.613 216.851C 368.564 216.287 367.653 216.738 366.856 218.656C 365.831 220.911 359.91 222.941 351.255 223.844C 350.686 223.956 350.344 224.52 350.344 225.084C 350.344 226.776 357.177 226.438 357.86 224.746ZM 603.138 225.084C 603.138 224.52 602.227 223.956 601.202 223.956C 600.063 223.844 597.444 221.588 595.394 218.881C 592.434 214.821 591.181 213.919 589.132 214.37C 585.715 215.272 575.809 210.987 575.809 208.731C 575.809 207.49 575.012 207.039 573.417 207.265C 569.09 207.829 568.293 204.558 571.026 198.017C 573.987 191.024 574.101 189.671 571.937 187.979C 569.887 186.287 571.368 179.521 574.442 176.25C 577.061 173.543 578.2 168.468 576.378 167.566C 575.809 167.227 575.239 168.355 575.239 170.047C 575.125 171.739 573.759 174.558 572.165 176.25C 568.521 180.197 566.927 187.528 569.546 188.543C 571.709 189.445 571.709 192.829 569.546 194.633C 568.521 195.423 567.952 196.776 568.293 197.566C 568.635 198.355 568.407 199.37 567.838 199.708C 565.56 201.062 566.699 205.799 569.887 208.393C 571.595 209.859 573.417 212.002 573.873 213.129C 574.442 214.37 575.353 214.934 576.492 214.483C 577.517 214.144 580.477 214.708 583.21 215.949C 586.854 217.528 588.448 217.754 589.473 216.738C 590.384 215.836 591.067 215.949 591.864 217.415C 594.37 221.814 598.924 226.212 600.974 226.212C 602.113 226.212 603.138 225.761 603.138 225.084ZM 524.908 201.513C 522.403 197.566 519.784 185.385 521.037 184.145C 521.72 183.468 522.289 183.242 522.289 183.581C 522.289 183.919 524.111 182.453 526.389 180.31C 528.666 178.167 530.26 176.25 529.919 175.911C 529.122 175.009 523.77 178.618 522.973 180.648C 522.631 181.551 521.265 182.227 520.012 182.227C 516.824 182.227 517.051 185.949 520.809 195.761C 521.265 196.663 521.378 197.904 521.265 198.468C 521.151 198.919 521.72 200.047 522.403 200.949C 523.428 202.19 523.314 202.979 521.834 204.558C 519.215 207.49 521.151 208.731 523.884 205.911C 525.819 203.994 526.047 203.205 524.908 201.513ZM 194.683 205.573C 195.025 204.671 194.797 203.317 194.228 202.415C 193.658 201.513 193.43 199.596 193.772 198.017C 194.228 195.648 193.658 194.859 189.9 193.054C 187.395 191.926 185.118 190.235 184.776 189.445C 184.435 188.543 183.182 187.866 181.929 187.866C 180.563 187.866 178.741 186.626 177.716 185.047C 176.236 182.791 174.869 182.227 171.34 182.227C 168.72 182.227 167.126 182.678 167.582 183.355C 167.923 184.032 169.745 184.483 171.453 184.483C 173.731 184.483 175.325 185.385 176.578 187.302C 177.602 188.881 179.424 190.122 180.563 190.122C 181.702 190.122 182.954 191.137 183.296 192.265C 183.638 193.618 185.004 194.633 187.054 194.859C 189.787 195.197 190.356 195.874 191.153 199.708C 191.836 202.641 191.722 204.332 190.925 204.558C 190.356 204.784 189.787 205.46 189.787 206.024C 189.787 207.603 194 207.265 194.683 205.573ZM 384.05 200.498C 385.872 199.37 387.011 194.972 385.758 194.182C 385.075 193.731 384.961 192.603 385.303 191.701C 385.644 190.573 384.62 188.769 382.57 186.851C 380.748 185.16 378.698 183.13 378.129 182.227C 377.56 181.325 375.168 179.633 372.663 178.505L 368.336 176.475L 370.841 174.333C 372.549 172.866 373.119 171.513 372.549 169.821C 371.98 167.904 372.435 167.453 375.282 166.889C 377.218 166.438 379.382 165.423 380.065 164.633C 380.748 163.731 382.342 163.054 383.481 163.054C 384.733 163.054 385.644 162.378 385.644 161.475C 385.644 160.686 386.669 159.671 387.922 159.333C 389.174 158.994 390.199 159.107 390.199 159.671C 390.199 160.122 392.249 160.573 394.754 160.573C 397.259 160.686 400.334 160.912 401.472 161.363C 402.725 161.701 403.978 161.475 404.433 160.799C 404.775 160.122 405.572 159.896 406.141 160.235C 406.597 160.573 407.621 160.122 408.305 159.22C 409.33 157.979 408.988 157.754 406.71 157.754C 405.116 157.754 403.522 158.205 403.18 158.656C 402.839 159.22 402.042 159.333 401.359 158.994C 399.992 158.205 392.363 157.077 388.036 157.19C 386.442 157.19 384.392 158.205 383.481 159.445C 380.976 162.49 376.535 164.746 376.535 162.942C 376.535 160.799 373.005 157.415 370.841 157.415C 367.994 157.415 366.97 154.032 369.133 151.776C 371.069 149.633 371.411 143.881 369.589 143.881C 368.792 143.881 368.678 142.303 369.133 139.257C 369.702 135.761 369.475 134.182 367.881 132.491C 365.831 130.235 362.87 129.671 361.162 131.363C 360.479 131.927 357.518 132.039 354.33 131.476C 351.255 131.024 348.409 130.799 348.067 131.137C 347.042 132.039 350.914 133.731 353.761 133.506C 355.355 133.393 357.291 133.618 357.974 134.069C 358.657 134.521 360.593 134.295 362.301 133.506C 366.514 131.588 368.336 133.618 366.628 138.242C 365.717 140.836 365.717 141.964 366.97 143.543C 368.905 146.137 368.905 148.393 366.97 150.536C 366.059 151.551 365.148 153.581 364.92 155.047C 364.692 157.415 365.262 157.979 369.475 159.333C 374.143 160.912 376.193 164.069 372.322 163.731C 370.727 163.618 370.272 164.521 370.272 167.002C 370.272 168.919 369.361 171.4 368.336 172.528C 367.197 173.769 366.286 175.348 366.286 176.137C 366.286 177.942 370.727 181.099 373.232 181.099C 374.257 181.099 375.624 182.34 376.307 183.919C 377.104 185.498 378.926 187.415 380.52 188.092C 382.114 188.769 383.367 190.122 383.139 191.137C 383.025 192.152 383.253 193.505 383.709 194.295C 384.62 195.761 383.595 199.145 382.114 199.145C 381.545 199.145 381.09 199.708 381.09 200.272C 381.09 201.626 382.228 201.739 384.05 200.498ZM 258.109 191.701C 258.109 190.911 259.589 190.009 261.411 189.558C 263.233 189.22 265.511 187.979 266.536 186.851C 267.56 185.724 270.407 184.145 272.912 183.355C 276.556 182.227 278.036 182.114 280.883 183.355C 283.958 184.596 284.755 184.596 286.235 183.017C 287.829 181.551 287.943 180.423 286.918 177.378C 285.78 173.769 285.894 173.543 289.082 172.302C 291.018 171.626 292.156 170.611 291.815 169.934C 291.359 169.257 289.765 169.483 287.715 170.498C 283.616 172.641 282.477 174.107 284.185 175.799C 284.869 176.475 285.438 177.942 285.438 178.957C 285.438 181.099 282.477 182.678 281.453 181.099C 280.428 179.521 273.368 179.746 270.293 181.438C 268.927 182.114 266.308 183.919 264.486 185.385C 262.55 186.964 260.386 187.641 259.134 187.302C 257.767 186.851 256.743 187.415 255.832 188.881C 254.124 192.152 251.391 190.686 251.846 186.626C 252.188 184.483 251.846 183.355 250.821 183.355C 249.91 183.355 248.886 182.002 248.43 180.31L 247.519 177.152L 246.722 179.972C 246.153 181.776 246.494 183.242 247.405 184.032C 248.316 184.708 248.999 186.851 248.999 188.769C 248.999 192.49 249.569 192.829 254.693 193.054C 256.743 193.167 258.109 192.603 258.109 191.701ZM 96.4125 188.994C 96.4125 188.43 97.0957 187.866 97.8928 187.866C 98.6899 187.866 101.764 185.836 104.839 183.355C 110.191 178.957 115.884 177.378 117.479 179.972C 118.276 181.212 125.905 184.934 126.474 184.37C 126.702 184.145 127.158 181.438 127.613 178.505C 128.069 174.445 127.955 173.092 126.816 173.43C 126.133 173.769 125.336 175.799 125.108 178.167L 124.766 182.227L 121.806 179.972C 120.212 178.731 117.82 177.716 116.454 177.716C 115.087 177.716 113.379 177.152 112.582 176.363C 111.557 175.348 110.305 175.911 106.889 178.957C 104.611 181.212 100.74 183.806 98.4622 184.934C 94.5906 186.626 92.427 190.122 95.2738 190.122C 95.957 190.122 96.4125 189.671 96.4125 188.994ZM 163.596 181.663C 162.799 180.761 161.547 179.972 160.75 179.972C 159.952 179.972 159.041 179.182 158.7 178.393C 158.244 177.152 158.586 176.927 159.952 177.378C 161.547 177.942 161.66 177.829 160.408 176.475C 158.358 174.22 150.843 173.994 149.135 176.137C 148.338 177.265 147.654 177.49 147.085 176.588C 146.63 175.912 146.971 174.671 147.654 173.769C 148.451 172.754 148.679 170.836 148.224 168.693C 147.541 165.648 147.768 165.31 150.387 165.31C 152.551 165.31 153.348 164.746 153.348 163.054C 153.348 161.814 153.803 160.799 154.373 160.799C 154.942 160.799 155.739 159.445 156.081 157.866C 157.106 153.806 161.091 150.761 165.304 150.648C 167.696 150.648 169.745 149.633 171.567 147.491C 174.072 144.558 174.983 144.333 179.766 144.784C 184.321 145.235 185.459 144.897 188.079 142.19C 190.356 140.047 191.609 139.596 192.406 140.385C 195.252 143.205 200.035 140.385 200.035 136.1C 200.035 133.618 197.985 134.972 197.188 137.904L 196.505 140.836L 194.114 138.468L 191.722 136.1L 187.737 139.596C 184.321 142.528 183.068 142.979 178.855 142.415C 174.642 141.964 173.617 142.415 169.745 145.686C 166.899 148.167 164.735 149.295 163.369 148.844C 160.863 148.054 153.348 153.806 153.348 156.513C 153.348 157.528 152.892 158.769 152.209 159.107C 151.64 159.445 151.07 160.799 151.07 162.039C 151.07 163.506 150.273 164.182 148.338 164.182C 146.857 164.182 145.377 164.859 145.035 165.761C 144.466 167.115 143.555 167.115 139.114 165.423C 132.851 163.054 131.599 161.475 132.282 156.626C 132.737 152.678 131.143 151.551 130.004 155.047C 129.663 156.175 128.296 157.415 127.158 157.754C 124.197 158.543 125.336 161.701 128.638 162.152C 130.574 162.378 131.029 163.167 130.801 165.31C 130.346 169.145 131.485 173.205 132.965 173.205C 133.762 173.205 133.99 171.964 133.648 169.934C 133.193 167.678 133.421 166.438 134.559 165.987C 135.47 165.648 136.267 165.761 136.267 166.212C 136.267 167.678 142.758 169.934 144.808 169.032C 146.516 168.468 146.743 168.693 146.174 170.272C 143.897 175.912 144.011 177.378 146.63 178.054C 148.11 178.393 149.818 178.28 150.615 177.603C 152.323 176.25 155.398 177.378 156.878 180.084C 157.447 181.325 158.928 182.227 160.18 182.227C 161.319 182.227 162.685 182.791 163.027 183.468C 163.482 184.145 164.052 184.37 164.393 184.032C 164.735 183.693 164.393 182.678 163.596 181.663ZM 245.583 176.814C 245.583 176.363 244.786 174.784 243.761 173.43C 242.167 171.175 242.167 170.949 243.761 170.949C 244.786 170.949 245.583 170.272 245.583 169.483C 245.583 167.566 243.306 165.31 241.256 165.31C 239.89 165.31 239.89 165.648 241.142 167.115C 242.281 168.581 242.281 169.032 241.142 169.821C 239.89 170.498 239.89 171.287 241.142 174.22C 242.509 177.378 245.583 179.182 245.583 176.814ZM 287.715 163.054C 286.007 161.25 283.73 159.671 282.705 159.671C 281.68 159.671 280.883 158.769 280.883 157.415C 280.883 155.949 280.086 155.16 278.834 155.16C 277.581 155.16 275.531 154.145 274.165 153.017C 272.001 151.212 271.204 151.1 268.016 152.227C 265.966 152.904 264.144 153.806 263.803 154.145C 263.461 154.483 260.728 155.272 257.54 155.836C 252.529 156.739 251.846 157.19 251.505 160.009C 251.277 162.265 251.618 163.054 252.985 163.054C 254.351 163.054 254.693 162.378 254.124 160.799C 253.554 158.994 253.896 158.543 256.287 158.543C 257.881 158.543 259.362 158.092 259.817 157.415C 260.159 156.851 261.184 156.626 262.095 156.964C 263.006 157.303 265.169 156.626 266.877 155.498C 270.749 152.904 274.051 153.355 274.051 156.4C 274.051 158.205 274.62 158.543 276.328 157.979C 277.923 157.415 278.606 157.754 278.606 159.107C 278.606 160.122 279.972 161.137 282.136 161.588C 284.072 161.927 285.894 163.054 286.349 164.069C 287.146 166.212 288.968 167.566 290.107 166.889C 290.562 166.663 289.424 164.972 287.715 163.054ZM 446.907 164.521C 446.679 163.28 445.313 162.378 443.377 162.152C 440.986 161.814 440.302 161.137 440.302 159.107C 440.302 157.754 439.505 156.175 438.48 155.836C 435.975 154.934 434.95 155.949 436.659 157.641C 437.456 158.43 438.025 160.122 438.025 161.588C 438.025 163.618 438.708 164.182 440.758 164.182C 442.352 164.182 443.946 164.746 444.288 165.31C 445.427 167.227 447.362 166.551 446.907 164.521ZM 240.345 164.633C 241.37 164.295 241.939 163.506 241.598 162.942C 240.801 161.814 237.612 162.942 237.612 164.295C 237.612 165.536 237.954 165.536 240.345 164.633ZM 578.542 163.167C 579.566 162.039 580.136 160.348 579.794 159.445C 579.453 158.543 580.819 156.287 583.324 154.032C 585.715 151.889 587.082 150.084 586.285 149.746C 584.463 149.182 576.834 156.4 577.175 158.43C 577.289 159.445 576.834 161.363 576.036 162.829C 574.328 165.874 575.809 166.099 578.542 163.167ZM 246.95 162.942C 248.772 161.927 248.999 161.475 247.747 160.686C 246.153 159.784 243.306 161.363 243.306 163.167C 243.306 164.521 244.103 164.408 246.95 162.942ZM 420.375 159.671C 420.717 159.107 422.083 158.543 423.336 158.543C 424.588 158.543 425.841 157.754 426.296 156.739C 426.752 155.385 427.89 155.16 430.737 155.724C 435.178 156.513 436.089 154.596 431.876 153.581C 429.257 152.904 425.613 153.694 424.36 155.047C 422.994 156.739 418.439 158.543 417.528 157.979C 416.276 157.19 415.934 158.881 417.187 160.009C 418.211 161.137 419.578 161.024 420.375 159.671ZM 417.528 155.385C 417.528 154.821 416.276 153.694 414.681 152.904C 412.176 151.551 411.493 151.551 409.785 153.355C 407.963 155.16 407.963 155.272 410.81 154.596C 412.632 154.145 414.226 154.37 414.568 155.047C 415.479 156.513 417.528 156.739 417.528 155.385ZM 130.118 147.491C 128.069 145.686 127.955 145.686 128.752 147.603C 129.093 148.731 129.435 150.31 129.435 150.987C 129.435 151.889 129.891 151.776 130.801 150.874C 131.94 149.859 131.712 149.069 130.118 147.491ZM 591.751 148.28C 592.775 146.475 593.8 146.137 595.85 146.588C 597.786 147.152 598.583 146.814 598.583 145.573C 598.583 142.641 592.32 143.43 590.156 146.701C 588.107 149.859 587.879 150.648 589.473 150.648C 590.043 150.648 591.067 149.633 591.751 148.28ZM 128.296 141.739C 127.613 140.272 126.93 135.536 126.93 131.137C 126.816 119.859 126.247 119.182 118.617 119.633C 113.152 119.972 112.354 119.746 112.354 117.942C 112.354 116.476 111.216 115.573 108.711 115.122C 106.661 114.671 104.27 113.769 103.586 113.205C 102.789 112.528 101.309 112.415 100.17 112.754C 98.576 113.43 98.8038 113.769 101.423 115.122C 103.245 116.024 105.636 116.814 106.775 116.814C 108.027 116.814 109.394 117.942 109.963 119.408C 110.76 121.551 111.671 121.889 117.592 122.002L 124.311 122.002L 124.425 131.024C 124.425 135.987 124.994 140.836 125.563 141.739C 126.019 142.641 126.361 144.333 126.133 145.573C 125.905 147.716 126.019 147.716 127.727 146.024C 129.321 144.445 129.435 143.656 128.296 141.739ZM 206.639 133.957C 207.778 132.829 209.6 131.588 210.625 131.137C 211.764 130.686 212.561 129.22 212.561 127.415C 212.561 125.498 213.244 124.257 214.838 123.919C 217.685 123.13 217.799 121.325 215.066 121.325C 212.219 121.325 210.283 123.468 210.283 126.626C 210.283 128.43 209.6 129.22 208.006 129.22C 206.753 129.22 205.728 130.009 205.728 130.912C 205.728 131.927 204.931 132.942 204.02 133.28C 202.085 134.069 201.743 135.987 203.451 135.987C 204.134 135.987 205.501 135.085 206.639 133.957ZM 350.344 128.318C 350.344 127.754 349.092 126.175 347.498 124.709C 344.195 121.664 343.398 123.919 346.701 127.077C 348.864 129.22 350.344 129.784 350.344 128.318ZM 223.948 123.581C 223.948 123.017 222.695 122.453 221.101 122.453C 219.507 122.453 218.254 123.017 218.254 123.581C 218.254 124.257 219.507 124.709 221.101 124.709C 222.695 124.709 223.948 124.257 223.948 123.581ZM 343.512 123.017C 343.512 122.679 342.487 121.212 341.235 119.859C 339.868 118.506 339.413 117.265 339.982 117.039C 341.69 116.476 345.106 109.032 344.195 108.017C 343.74 107.566 342.829 108.242 342.146 109.483C 341.463 110.611 339.527 112.867 337.933 114.333C 336.111 116.024 335.541 117.265 336.338 117.716C 336.908 118.167 337.819 119.633 338.274 121.1C 338.957 123.242 343.512 124.934 343.512 123.017ZM 341.804 102.491C 341.576 100.122 341.007 97.0771 340.665 95.7237C 339.641 92.4531 341.121 92.4531 346.017 95.3854C 350.8 98.2049 352.166 98.2049 352.963 95.2726C 353.533 93.2425 354.216 92.9042 357.063 93.4681C 361.39 94.3703 361.845 92.3403 357.632 91.3252C 355.469 90.7613 354.102 91.2125 352.508 92.7914C 350.231 95.047 350.231 95.047 344.993 92.3403C 339.299 89.5207 336.68 89.0696 336.68 90.8741C 336.68 91.5508 337.249 92.0019 337.933 92.0019C 338.843 92.0019 338.843 92.4531 337.819 93.6937C 336.68 94.9343 336.794 95.7237 338.274 97.0771C 339.299 98.0921 340.096 100.686 340.096 102.829C 340.096 104.972 340.552 106.664 341.121 106.664C 341.804 106.664 342.032 104.746 341.804 102.491ZM 294.548 94.7087C 294.548 94.032 295.914 93.6937 297.736 94.032C 300.241 94.3703 301.949 93.5809 305.365 90.423C 307.757 88.1674 309.351 85.9117 308.895 85.4606C 308.44 85.0095 307.074 85.7989 305.935 87.2651C 304.796 88.6185 303.316 89.7463 302.633 89.7463C 301.949 89.7463 301.38 90.3102 301.38 90.8741C 301.38 91.5508 299.9 92.0019 298.192 92.0019C 294.662 92.0019 290.904 94.7087 289.651 97.9794C 288.968 99.8966 288.968 99.8966 291.701 97.9794C 293.181 96.8515 294.548 95.3854 294.548 94.7087ZM 373.688 98.7688C 376.193 97.8666 376.649 97.0771 376.307 94.9343C 375.624 91.5508 379.268 90.1974 382.798 92.4531C 385.531 94.1448 394.412 93.9192 396.234 92.1147C 397.259 91.0997 396.804 89.4079 394.64 85.4606C 392.249 81.1749 391.793 79.7087 392.818 77.6787C 393.615 75.7614 393.501 74.6335 392.363 73.2802C 391.452 72.2651 390.996 70.2351 391.11 68.7689C 391.566 65.1599 390.427 65.3855 388.947 68.9945C 388.15 71.3629 388.263 72.4907 389.744 74.0696C 391.452 75.8741 391.452 76.6636 390.313 78.9193C 388.719 81.7388 389.63 84.6711 392.932 87.4907C 393.957 88.2801 394.754 89.2952 394.754 89.8591C 394.754 91.6636 384.278 90.9869 382.228 89.1824C 380.406 87.6034 379.951 87.6034 376.762 89.408C 374.143 90.8741 373.346 92.0019 373.802 93.5809C 374.257 94.7087 373.802 96.0621 373.005 96.626C 370.613 98.0921 370.044 97.8666 369.361 95.2726C 369.019 93.9192 368.222 93.2425 367.425 93.6937C 366.742 94.1448 365.375 93.8064 364.464 93.017C 363.553 92.3403 362.415 92.0019 361.959 92.4531C 361.504 92.9042 362.187 93.8064 363.326 94.4831C 364.464 95.1598 366.286 96.5132 367.311 97.641C 369.475 100.122 369.93 100.235 373.688 98.7688ZM 336.68 87.1523C 336.68 85.0095 332.467 81.5132 331.1 82.4155C 330.417 82.7538 329.848 82.7538 329.848 82.1899C 329.734 80.7238 325.293 75.8742 324.61 76.5508C 323.699 77.3403 329.051 85.235 330.417 85.1222C 333.264 84.7839 334.403 85.3478 334.403 86.9268C 334.403 87.829 334.972 88.6185 335.541 88.6185C 336.224 88.6185 336.68 87.9418 336.68 87.1523ZM 313.109 82.1899C 314.134 81.8516 315.044 80.611 315.044 79.4832C 315.044 77.2275 317.777 76.5508 319.03 78.4681C 319.827 79.8215 323.015 80.0471 323.015 78.6937C 323.015 78.2426 321.421 76.8892 319.372 75.6486C 315.842 73.6185 315.728 73.6185 314.589 75.6486C 313.906 76.7764 311.856 79.2576 309.92 81.0621C 307.415 83.5433 307.074 84.22 308.782 83.5433C 310.034 83.0922 311.97 82.4155 313.109 82.1899ZM 390.199 63.2426C 390.199 62.3403 389.744 61.5509 389.061 61.5509C 388.491 61.5509 387.922 62.3403 387.922 63.2426C 387.922 64.1449 388.491 64.9343 389.061 64.9343C 389.744 64.9343 390.199 64.1449 390.199 63.2426Z" transform="translate(0 103.088)" fill="#0A669B"/>
</g>
<g id="panacci">
<g id="Group">
<g id="Group_2">
<g id="Vector">
<path d="M 60.0953 216.892C 25.1712 148.957 -55.6049 -4.87729e-06 60.0953 0L 61.0926 0C 177.004 -4.87729e-06 96.0805 148.957 61.0926 216.892L 60.5885 217.447L 60.0953 216.892Z" transform="translate(386.919 82.9187)" fill="#2D9CDB"/>
</g>
<g id="Ellipse">
<ellipse cx="40.1531" cy="38.7037" rx="40.1531" ry="38.7037" transform="translate(407.284 0)" fill="#CF0404"/>
</g>
</g>
</g>
<g id="Group_3">
<g id="Vector_2">
<path d="M 16.8153 60.6885C 7.04316 41.6798 -15.5588 -1.36471e-06 16.8153 0L 17.0943 0C 49.5275 -1.36471e-06 26.8843 41.6797 17.0943 60.6885L 16.9533 60.8439L 16.8153 60.6885Z" transform="translate(242.107 422.107)" fill="#F2F2F2"/>
</g>
<g id="Ellipse_2">
<ellipse cx="11.2352" cy="10.8297" rx="11.2352" ry="10.8297" transform="translate(247.805 398.906)" fill="#EB5757"/>
</g>
</g>
<g id="Group_4">
<g id="Vector_3">
<path d="M 16.8153 60.6885C 7.04316 41.6798 -15.5588 -1.36471e-06 16.8153 0L 17.0943 0C 49.5275 -1.36471e-06 26.8843 41.6797 17.0943 60.6885L 16.9533 60.8439L 16.8153 60.6885Z" transform="translate(412.94 400.818)" fill="#F2F2F2"/>
</g>
<g id="Ellipse_3">
<ellipse cx="11.2352" cy="10.8297" rx="11.2352" ry="10.8297" transform="translate(418.638 377.616)" fill="#EB5757"/>
</g>
</g>
<g id="Group_5">
<g id="Vector_4">
<path d="M 47.6432 171.951C 19.9556 118.093 -44.0833 -3.86669e-06 47.6432 0L 48.4339 0C 140.328 -3.86669e-06 76.1721 118.093 48.4339 171.951L 48.0343 172.391L 47.6432 171.951Z" transform="translate(191.197 148.656)" fill="#F2F2F2"/>
</g>
<g id="Ellipse_4">
<ellipse cx="31.8332" cy="30.6841" rx="31.8332" ry="30.6841" transform="translate(207.342 82.9187)" fill="#EB5757"/>
</g>
</g>
<g id="Group_6">
<g id="Vector_5">
<path d="M 39.2356 141.607C 16.434 97.2528 -36.3039 -3.18433e-06 39.2356 0L 39.8868 0C 115.564 -3.18433e-06 62.73 97.2527 39.8868 141.607L 39.5576 141.969L 39.2356 141.607Z" transform="translate(307.725 268.156)" fill="#F2F2F2"/>
</g>
<g id="Ellipse_5">
<ellipse cx="26.2156" cy="25.2692" rx="26.2156" ry="25.2692" transform="translate(321.021 214.02)" fill="#EB5757"/>
</g>
</g>
<g id="Group_7">
<g id="Vector_6">
<path d="M 11.2102 40.459C 4.69544 27.7865 -10.3725 -9.0981e-07 11.2102 0L 11.3962 0C 33.0184 -9.0981e-07 17.9228 27.7865 11.3962 40.459L 11.3022 40.5626L 11.2102 40.459Z" transform="translate(65.6179 247.416)" fill="#F2F2F2"/>
</g>
<g id="Ellipse_6">
<ellipse cx="7.49016" cy="7.21978" rx="7.49016" ry="7.21978" transform="translate(69.4167 231.948)" fill="#EB5757"/>
</g>
</g>
<g id="Group_8">
<g id="Vector_7">
<path d="M 11.2102 40.459C 4.69544 27.7865 -10.3725 -9.0981e-07 11.2102 0L 11.3962 0C 33.0184 -9.0981e-07 17.9228 27.7865 11.3962 40.459L 11.3022 40.5626L 11.2102 40.459Z" transform="translate(321.301 151.051)" fill="#F2F2F2"/>
</g>
<g id="Ellipse_7">
<ellipse cx="7.49016" cy="7.21978" rx="7.49016" ry="7.21978" transform="translate(325.1 135.583)" fill="#EB5757"/>
</g>
<g id="Group_9">
<g id="Vector_8">
<path d="M 11.2102 40.459C 4.69544 27.7865 -10.3725 -9.0981e-07 11.2102 0L 11.3962 0C 33.0184 -9.0981e-07 17.9228 27.7865 11.3962 40.459L 11.3022 40.5626L 11.2102 40.459Z" transform="translate(526.075 456.954)" fill="#F2F2F2"/>
</g>
<g id="Ellipse_8">
<ellipse cx="7.49016" cy="7.21978" rx="7.49016" ry="7.21978" transform="translate(529.874 441.486)" fill="#EB5757"/>
</g>
</g>
</g>
<g id="Group_10">
<g id="Vector_9">
<path d="M 33.6305 121.377C 14.0863 83.3595 -31.1176 -2.72943e-06 33.6305 0L 34.1887 0C 99.0551 -2.72943e-06 53.7685 83.3595 34.1887 121.377L 33.9065 121.688L 33.6305 121.377Z" transform="translate(106.346 273.869)" fill="#F2F2F2"/>
</g>
<g id="Ellipse_9">
<ellipse cx="22.4705" cy="21.6593" rx="22.4705" ry="21.6593" transform="translate(117.742 227.466)" fill="#EB5757"/>
</g>
</g>
<g id="Group_11">
<g id="Vector_10">
<path d="M 33.6305 121.377C 14.0863 83.3595 -31.1176 -2.72943e-06 33.6305 0L 34.1887 0C 99.0551 -2.72943e-06 53.7685 83.3595 34.1887 121.377L 33.9065 121.688L 33.6305 121.377Z" transform="translate(605.269 273.869)" fill="#F2F2F2"/>
</g>
<g id="Ellipse_10">
<ellipse cx="22.4705" cy="21.6593" rx="22.4705" ry="21.6593" transform="translate(616.665 227.466)" fill="#EB5757"/>
</g>
</g>
<g id="Group_12">
<g id="Group_13">
<g id="Vector_11">
<path d="M 25.2229 91.0328C 10.5647 62.5196 -23.3382 -2.04707e-06 25.2229 0L 25.6415 0C 74.2913 -2.04707e-06 40.3264 62.5196 25.6415 91.0328L 25.4299 91.2659L 25.2229 91.0328Z" transform="translate(500.054 311.571)" fill="#F2F2F2"/>
</g>
<g id="Ellipse_11">
<ellipse cx="16.8529" cy="16.2445" rx="16.8529" ry="16.2445" transform="translate(508.601 276.769)" fill="#EB5757"/>
</g>
</g>
</g>
</g>
</g>
</g>
</svg>

